Tools for Megascope Analysis Within the PelaVerse • pelascope
…
Sightings removed because observation time not within start/end of effort transects, are sightings out of effort (other, trawling) or observed under the speed set at the beginning. But it can be check with the variable ‘return = “removed”’.

Remove attraction behaviour

This step allows to remove sightings with attraction behaviour. It produces a table couting the number of observation and a sightings table without attractors.

Sigthings_without_attractor <- remove_attractor(Sigthings_with_SegID)
#> → 637 attraction behaviour have been removed from the sighting table.

Sigthings_without_attractor$table_behavior
#> # A tibble: 35 × 3
#> # Groups:   Species, behaviour [35]
#>    Species behaviour      n
#>    <chr>   <chr>      <int>
#>  1 DELDEL  attraction   253
#>  2 LARFUS  attraction   101
#>  3 SULBAS  attraction    72
#>  4 LARGUL  attraction    63
#>  5 FULGLA  attraction    28
#>  6 LARMIC  attraction    18
#>  7 LARARG  attraction    15
#>  8 STRDEC  attraction    14
#>  9 GREGUL  attraction     9
#> 10 HIRRUS  attraction     9
#> # ℹ 25 more rows
Sigthings_without_attractor$table_direction
#> # A tibble: 22 × 3
#> # Groups:   Species, direction [22]
#>    Species direction     n
#>    <chr>       <dbl> <int>
#>  1 PUFPUF        360    11
#>  2 SULBAS        360     8
#>  3 FULGLA        360     5
#>  4 LARARG        360     5
#>  5 LARGUL        360     3
#>  6 SAILBO        360     3
#>  7 DELDEL        360     2
#>  8 MOLMOL        360     2
#>  9 RISTRI        360     2
#> 10 STEHIR        360     2
#> # ℹ 12 more rows
Sigthings_without_attractor$sightings_table
#> # A tibble: 2,265 × 25
#>    survey session routeType LegID Species speciesLatin GroupSize behaviour Side 
#>    <chr>  <chr>   <chr>     <chr> <chr>   <chr>            <int> <chr>     <chr>
#>  1 PELGAS LEG1    prospect… 3004… PHACAR  Phalacrocor…         1 moving    left 
#>  2 PELGAS LEG1    prospect… 3004… PHACAR  Phalacrocor…         1 moving    left 
#>  3 PELGAS LEG1    prospect… 3004… BUOY    Fishing buo…         1 NULL      right
#>  4 PELGAS LEG1    prospect… 3004… PHACAR  Phalacrocor…         1 moving    left 
#>  5 PELGAS LEG1    prospect… 3004… MOTOBO  Small motor…         2 stationa… left 
#>  6 PELGAS LEG1    prospect… 3004… LARFUS  Larus fuscus         2 moving    right
#>  7 PELGAS LEG1    prospect… 3004… MOTOBO  Small motor…         1 moving    right
#>  8 PELGAS LEG1    prospect… 3004… SULBAS  Morus bassa…         1 moving    left 
#>  9 PELGAS LEG1    prospect… 3004… BUOY    Fishing buo…         2 NULL      left 
#> 10 PELGAS LEG1    prospect… 3004… SAILBO  Sailing boat         1 moving    right
#> # ℹ 2,255 more rows
#> # ℹ 16 more variables: Longitude <dbl>, Latitude <dbl>, DateTime <dttm>,
#> #   distance <int>, angle <int>, PerpDist <dbl>, direction <dbl>,
#> #   TransectID <chr>, DupID <int>, Date <date>, Effort <dbl>, Beaufort <dbl>,
#> #   Start_time <dttm>, End_time <dttm>, SegID <chr>, geomeff <POINT [°]>
…
export_esw$model_selection
#>                      model        AIC det_fun
#> 1            1 + plateform -100.94053      hn
#> 2             1 + Beaufort -100.05119      hn
#> 3 1 + Beaufort + plateform  -99.78064      hn

export_esw$effort_output
#> Simple feature collection with 390 features and 16 fields
#> Geometry type: POINT
#> Dimension:     XY
#> Bounding box:  xmin: -5.657199 ymin: 43.66589 xmax: -1.253505 ymax: 48.31222
#> Geodetic CRS:  WGS 84
#> # A tibble: 390 × 17
#>    Beaufort TransectID         plateform         n_obs LegID Start_time         
#>       <dbl> <chr>              <chr>             <dbl> <chr> <dttm>             
#>  1        0 TR_Pelgas_25052023 upper_bridge_out…     2 2505… 2023-05-25 04:57:07
#>  2        1 TR_Pelgas_04052023 upper_bridge_out…     2 0405… 2023-05-04 11:42:53
#>  3        1 TR_Pelgas_05052023 upper_bridge_out…     2 0505… 2023-05-05 13:56:44
#>  4        1 TR_Pelgas_05052023 upper_bridge_out…     2 0505… 2023-05-05 13:56:44
#>  5        1 TR_Pelgas_05052023 upper_bridge_out…     2 0505… 2023-05-05 13:56:44
#>  6        1 TR_Pelgas_05052023 upper_bridge_out…     2 0505… 2023-05-05 13:56:44
#>  7        1 TR_Pelgas_05052023 upper_bridge_out…     2 0505… 2023-05-05 16:09:17
#>  8        1 TR_Pelgas_18052023 upper_bridge_out…     2 1805… 2023-05-18 11:33:05
#>  9        1 TR_Pelgas_22052023 upper_bridge_out…     2 2205… 2023-05-22 15:03:10
#> 10        1 TR_Pelgas_27052023 upper_bridge_out…     2 2705… 2023-05-27 13:24:10
#> # ℹ 380 more rows
#> # ℹ 11 more variables: DateTime <dttm>, End_time <dttm>, SegID <chr>,
#> #   Effort <dbl>, geometry <POINT [°]>, det.FULGLA <dbl>, ind.FULGLA <dbl>,
#> #   mean_esw_FULGLA <dbl>, sd_esw_FULGLA <dbl>, Q25_esw_FULGLA <dbl>,
#> #   Q75_esw_FULGLA <dbl>
…
#> 5  0.04106622 0.02293252  FULGLA POLYGON ((-4.995843 48.4591...
#> 6  0.03883960 0.02174332  FULGLA POLYGON ((-4.906011 48.4591...
#> 7  0.03705187 0.02112480  FULGLA POLYGON ((-4.81618 48.45917...
#> 9  0.04933411 0.02735214  FULGLA POLYGON ((-5.265338 48.3995...
#> 10 0.04597774 0.02489122  FULGLA POLYGON ((-5.175506 48.3995...
#> 11 0.04282812 0.02280001  FULGLA POLYGON ((-5.085675 48.3995...
#> 12 0.03993427 0.02103133  FULGLA POLYGON ((-4.995843 48.3995...
#> 
#> $data_fit
#> Simple feature collection with 390 features and 18 fields
#> Geometry type: POINT
#> Dimension:     XY
#> Bounding box:  xmin: -5.657199 ymin: 43.66589 xmax: -1.253505 ymax: 48.31222
#> Geodetic CRS:  WGS 84
#> # A tibble: 390 × 19
#>    Beaufort TransectID         plateform         n_obs LegID Start_time         
#>       <dbl> <chr>              <chr>             <dbl> <chr> <dttm>             
#>  1        0 TR_Pelgas_25052023 upper_bridge_out…     2 2505… 2023-05-25 04:57:07
#>  2        1 TR_Pelgas_04052023 upper_bridge_out…     2 0405… 2023-05-04 11:42:53
#>  3        1 TR_Pelgas_05052023 upper_bridge_out…     2 0505… 2023-05-05 13:56:44
#>  4        1 TR_Pelgas_05052023 upper_bridge_out…     2 0505… 2023-05-05 13:56:44
#>  5        1 TR_Pelgas_05052023 upper_bridge_out…     2 0505… 2023-05-05 13:56:44
#>  6        1 TR_Pelgas_05052023 upper_bridge_out…     2 0505… 2023-05-05 13:56:44
#>  7        1 TR_Pelgas_05052023 upper_bridge_out…     2 0505… 2023-05-05 16:09:17
#>  8        1 TR_Pelgas_18052023 upper_bridge_out…     2 1805… 2023-05-18 11:33:05
#>  9        1 TR_Pelgas_22052023 upper_bridge_out…     2 2205… 2023-05-22 15:03:10
#> 10        1 TR_Pelgas_27052023 upper_bridge_out…     2 2705… 2023-05-27 13:24:10
#> # ℹ 380 more rows
#> # ℹ 13 more variables: DateTime <dttm>, End_time <dttm>, SegID <chr>,
#> #   Effort <dbl>, geometry <POINT [°]>, det.FULGLA <dbl>, ind.FULGLA <dbl>,
#> #   mean_esw_FULGLA <dbl>, sd_esw_FULGLA <dbl>, Q25_esw_FULGLA <dbl>,
#> #   Q75_esw_FULGLA <dbl>, lon <dbl>, lat <dbl>
…
