Estimate Effective Strip Width (ESW) — estimate_esw • pelascope
…
#> 5        4 0.4050276 0.03667887 0.33090994 0.4707922
#> 6        5 0.4465378 0.05653429 0.32439361 0.5383772
#> 7        6 0.4767824 0.07278470 0.30445074 0.5781263
#> 
#> $model_selection
#>          model       AIC det_fun
#> 1 1 + Beaufort -138.2179      hn
#> 
#> $effort_output
#> Simple feature collection with 390 features and 16 fields
#> Geometry type: POINT
#> Dimension:     XY
#> Bounding box:  xmin: -5.657199 ymin: 43.66589 xmax: -1.253505 ymax: 48.31222
#> Geodetic CRS:  WGS 84
#> # A tibble: 390 × 17
#>    Beaufort TransectID         plateform         n_obs LegID Start_time         
#>       <dbl> <chr>              <chr>             <dbl> <chr> <dttm>             
#>  1        0 TR_Pelgas_25052023 upper_bridge_out…     2 2505… 2023-05-25 04:57:07
#>  2        1 TR_Pelgas_04052023 upper_bridge_out…     2 0405… 2023-05-04 11:42:53
#>  3        1 TR_Pelgas_05052023 upper_bridge_out…     2 0505… 2023-05-05 13:56:44
#>  4        1 TR_Pelgas_05052023 upper_bridge_out…     2 0505… 2023-05-05 13:56:44
#>  5        1 TR_Pelgas_05052023 upper_bridge_out…     2 0505… 2023-05-05 13:56:44
#>  6        1 TR_Pelgas_05052023 upper_bridge_out…     2 0505… 2023-05-05 13:56:44
#>  7        1 TR_Pelgas_05052023 upper_bridge_out…     2 0505… 2023-05-05 16:09:17
#>  8        1 TR_Pelgas_18052023 upper_bridge_out…     2 1805… 2023-05-18 11:33:05
#>  9        1 TR_Pelgas_22052023 upper_bridge_out…     2 2205… 2023-05-22 15:03:10
#> 10        1 TR_Pelgas_27052023 upper_bridge_out…     2 2705… 2023-05-27 13:24:10
#> # ℹ 380 more rows
#> # ℹ 11 more variables: DateTime <dttm>, End_time <dttm>, SegID <chr>,
#> #   Effort <dbl>, geometry <POINT [°]>, det.FULGLA <dbl>, ind.FULGLA <dbl>,
#> #   mean_esw_FULGLA <dbl>, sd_esw_FULGLA <dbl>, Q25_esw_FULGLA <dbl>,
#> #   Q75_esw_FULGLA <dbl>
…
#> 7        6 0.2081729 0.02421398 0.1631331 0.2572739
#> 
#> $model_selection
#>                      model       AIC det_fun
#> 1             1 + Beaufort -424.3949      hn
#> 2 1 + Beaufort + plateform -422.8151      hn
#> 3            1 + plateform -415.6568      hn
#> 
#> $effort_output
#> Simple feature collection with 390 features and 20 fields
#> Geometry type: POINT
#> Dimension:     XY
#> Bounding box:  xmin: -5.657199 ymin: 43.66589 xmax: -1.253505 ymax: 48.31222
#> Geodetic CRS:  WGS 84
#> # A tibble: 390 × 21
#>    Beaufort TransectID         plateform         n_obs LegID Start_time         
#>       <dbl> <chr>              <chr>             <dbl> <chr> <dttm>             
#>  1        0 TR_Pelgas_25052023 upper_bridge_out…     2 2505… 2023-05-25 04:57:07
#>  2        1 TR_Pelgas_04052023 upper_bridge_out…     2 0405… 2023-05-04 11:42:53
#>  3        1 TR_Pelgas_05052023 upper_bridge_out…     2 0505… 2023-05-05 13:56:44
#>  4        1 TR_Pelgas_05052023 upper_bridge_out…     2 0505… 2023-05-05 13:56:44
#>  5        1 TR_Pelgas_05052023 upper_bridge_out…     2 0505… 2023-05-05 13:56:44
#>  6        1 TR_Pelgas_05052023 upper_bridge_out…     2 0505… 2023-05-05 13:56:44
#>  7        1 TR_Pelgas_05052023 upper_bridge_out…     2 0505… 2023-05-05 16:09:17
#>  8        1 TR_Pelgas_18052023 upper_bridge_out…     2 1805… 2023-05-18 11:33:05
#>  9        1 TR_Pelgas_22052023 upper_bridge_out…     2 2205… 2023-05-22 15:03:10
#> 10        1 TR_Pelgas_27052023 upper_bridge_out…     2 2705… 2023-05-27 13:24:10
#> # ℹ 380 more rows
#> # ℹ 15 more variables: DateTime <dttm>, End_time <dttm>, SegID <chr>,
#> #   Effort <dbl>, geometry <POINT [°]>, det.DELDEL <int>, ind.DELDEL <int>,
#> #   det.DELSPP <int>, ind.DELSPP <int>, ind.DELDEL_DELSPP <dbl>,
#> #   det.DELDEL_DELSPP <dbl>, mean_esw_DELDEL_DELSPP <dbl>,
#> #   sd_esw_DELDEL_DELSPP <dbl>, Q25_esw_DELDEL_DELSPP <dbl>,
#> #   Q75_esw_DELDEL_DELSPP <dbl>
…
