Fit and Predict distribution — fit_and_predict • pelascope
…
#> 5  0.03275919 0.02932575  DELDEL POLYGON ((-4.995843 48.4591...
#> 6  0.03234298 0.02890461  DELDEL POLYGON ((-4.906011 48.4591...
#> 7  0.03193600 0.02919862  DELDEL POLYGON ((-4.81618 48.45917...
#> 9  0.04214810 0.03891133  DELDEL POLYGON ((-5.355169 48.3995...
#> 10 0.03969739 0.03515484  DELDEL POLYGON ((-5.265338 48.3995...
#> 11 0.03777341 0.03201557  DELDEL POLYGON ((-5.175506 48.3995...
#> 12 0.03619948 0.02971869  DELDEL POLYGON ((-5.085675 48.3995...
#> 
#> $data_fit
#> Simple feature collection with 433 features and 18 fields
#> Geometry type: POINT
#> Dimension:     XY
#> Bounding box:  xmin: -5.657199 ymin: 43.66589 xmax: -1.23514 ymax: 48.31294
#> Geodetic CRS:  WGS 84
#> # A tibble: 433 × 19
#>    Beaufort TransectID         plateform         n_obs LegID Start_time         
#>    <fct>    <chr>              <chr>             <dbl> <chr> <dttm>             
#>  1 1        TR_Pelgas_04052023 upper_bridge_out…     2 0405… 2023-05-04 11:42:53
#>  2 1        TR_Pelgas_04052023 upper_bridge_out…     2 0405… 2023-05-04 11:42:53
#>  3 1        TR_Pelgas_05052023 upper_bridge_out…     2 0505… 2023-05-05 13:56:44
#>  4 1        TR_Pelgas_05052023 upper_bridge_out…     2 0505… 2023-05-05 13:56:44
#>  5 1        TR_Pelgas_05052023 upper_bridge_out…     2 0505… 2023-05-05 13:56:44
#>  6 1        TR_Pelgas_05052023 upper_bridge_out…     2 0505… 2023-05-05 13:56:44
#>  7 1        TR_Pelgas_18052023 upper_bridge_out…     2 1805… 2023-05-18 13:00:34
#>  8 1        TR_Pelgas_22052023 upper_bridge_out…     2 2205… 2023-05-22 15:03:10
#>  9 1        TR_Pelgas_27052023 upper_bridge_out…     2 2705… 2023-05-27 13:24:10
#> 10 2        TR_Pelgas_01052023 upper_bridge_out…     2 0105… 2023-05-01 06:56:56
#> # ℹ 423 more rows
#> # ℹ 13 more variables: DateTime <dttm>, End_time <dttm>, SegID <chr>,
#> #   Effort <dbl>, geometry <POINT [°]>, det.DELDEL <int>, ind.DELDEL <int>,
#> #   mean_esw_DELDEL <dbl>, sd_esw_DELDEL <dbl>, Q25_esw_DELDEL <dbl>,
#> #   Q75_esw_DELDEL <dbl>, lon <dbl>, lat <dbl>
…
