Remove Attractor — remove_attractor • pelascope
…
    Arguments

sighting_table
dataframe. Sightings table cleaned and checked.

    Value

    Sightings table without attractor and some stats

    Examples

remove_attractor(pelascope::Sigthings_with_SegID)
#> → 740 attraction behaviour have been removed from the sighting table.
#> $sightings_table
#> # A tibble: 2,515 × 24
#>    survey session routeType LegID Species speciesLatin GroupSize behaviour Side 
#>    <chr>  <chr>   <chr>     <chr> <chr>   <chr>            <int> <chr>     <chr>
#>  1 PELGAS LEG1    prospect… 3004… PHACAR  Phalacrocor…         1 moving    left 
#>  2 PELGAS LEG1    prospect… 3004… PHACAR  Phalacrocor…         1 moving    left 
#>  3 PELGAS LEG1    prospect… 3004… BUOY    Fishing buo…         1 NULL      right
#>  4 PELGAS LEG1    prospect… 3004… PHACAR  Phalacrocor…         1 moving    left 
#>  5 PELGAS LEG1    prospect… 3004… MOTOBO  Small motor…         2 stationa… left 
#>  6 PELGAS LEG1    prospect… 3004… LARFUS  Larus fuscus         2 moving    right
#>  7 PELGAS LEG1    prospect… 3004… MOTOBO  Small motor…         1 moving    right
#>  8 PELGAS LEG1    prospect… 3004… SULBAS  Morus bassa…         1 moving    left 
#>  9 PELGAS LEG1    prospect… 3004… BUOY    Fishing buo…         2 NULL      left 
#> 10 PELGAS LEG1    prospect… 3004… SAILBO  Sailing boat         1 moving    right
#> # ℹ 2,505 more rows
#> # ℹ 15 more variables: Longitude <dbl>, Latitude <dbl>, DateTime <dttm>,
#> #   distance <int>, angle <int>, PerpDist <dbl>, TransectID <chr>, DupID <int>,
#> #   Date <date>, Effort <dbl>, Beaufort <dbl>, Start_time <dttm>,
#> #   End_time <dttm>, SegID <chr>, geomeff <POINT [°]>
#> 
#> $table_behavior
#> # A tibble: 34 × 3
#> # Groups:   Species, behaviour [34]
#>    Species behaviour      n
#>    <chr>   <chr>      <int>
#>  1 DELDEL  attraction   316
#>  2 LARFUS  attraction   104
#>  3 SULBAS  attraction    81
#>  4 LARGUL  attraction    69
#>  5 FULGLA  attraction    30
#>  6 LARMIC  attraction    28
#>  7 STRDEC  attraction    16
#>  8 LARARG  attraction    15
#>  9 GREGUL  attraction    11
#> 10 HIRRUS  attraction    11
#> # ℹ 24 more rows
…
